NC_017844.1	7978604	242507
NC_017850.1	8319966	242507
NC_017849.1	6606598	242507
NC_017851.1	5546968	242507
NC_017852.1	4490059	242507
NC_017853.1	4133993	242507
NC_017854.1	3415785	242507
NW_003803360.1	153340	242507
NW_003803359.1	21770	242507
NW_003803358.1	15739	242507
NW_003803357.1	223050	242507
NW_003803356.1	11695	242507
NW_003803355.1	5588	242507
NW_003803354.1	4583	242507
NW_003803353.1	4394	242507
NW_003803352.1	4078	242507
NW_003803351.1	4049	242507
NW_003803350.1	3423	242507
NW_003803349.1	3259	242507
NW_003803348.1	1239	242507
NW_003803347.1	1206	242507
NW_003803346.1	1110	242507
NW_003803345.1	992	242507
NW_003803344.1	906	242507
NW_003803343.1	893	242507
NW_003803342.1	862	242507
NW_003803341.1	784	242507
NW_003803340.1	771	242507
NW_003803339.1	677	242507
NW_003803338.1	656	242507
NW_003803337.1	622	242507
NW_003803336.1	1005	242507
NW_003803335.1	2043	242507
NW_003803334.1	1206	242507
NW_003803333.1	804	242507
NW_003803332.1	1482	242507
NW_003803331.1	663	242507
NW_003803330.1	1335	242507
NW_003803329.1	2517	242507
NW_003803328.1	1659	242507
NW_003803327.1	459	242507
NW_003803326.1	711	242507
NW_003803325.1	570	242507
NW_003803324.1	405	242507
NW_003803323.1	387	242507
NW_003803322.1	1347	242507
NW_003803321.1	627	242507
NW_003803320.1	726	242507
NW_003803319.1	372	242507
NW_003803318.1	1086	242507
NW_003803317.1	1068	242507
NW_003803316.1	255	242507
NW_003803315.1	735	242507
NC_006067.1	2303261	284591
NC_006068.1	3066374	284591
NC_006069.1	3272609	284591
NC_006070.1	3633272	284591
NC_006071.1	4224103	284591
NC_006072.1	4003362	284591
NC_002659.1	47916	284591
NC_005967.2	491328	5478
NC_005968.1	502101	5478
NC_006026.1	558804	5478
NC_006027.1	651701	5478
NC_006028.2	687738	5478
NC_006029.1	927101	5478
NC_006030.1	992211	5478
NC_006031.1	1050361	5478
NC_006032.2	1100349	5478
NC_006033.2	1195132	5478
NC_006034.2	1302831	5478
NC_006035.2	1455689	5478
NC_006036.2	1402899	5478
NC_004691.1	20063	5478
NC_007194.1	4918979	330879
NC_007195.1	4844472	330879
NC_007196.1	4079167	330879
NC_007197.1	3923705	330879
NC_007198.1	3948441	330879
NC_007199.1	3778736	330879
NC_007200.1	2058334	330879
NC_007201.1	1833124	330879
NC_003424.3	5579133	4896
NC_003423.3	4539804	4896
NC_003421.2	2452883	4896
NC_001326.1	19431	4896
NC_006043.2	1249940	284592
NC_006044.2	1344482	284592
NC_006045.2	1587442	284592
NC_006046.2	1606296	284592
NC_006047.2	2007515	284592
NC_006048.2	2305761	284592
NC_006049.2	2051050	284592
NC_010166.1	29462	284592
NC_012990.1	1114666	4956
NC_012991.1	1388208	4956
NC_012992.1	1464093	4956
NC_012993.1	1496342	4956
NC_012994.1	881646	4956
NC_012995.1	1554288	4956
NC_012996.1	1865392	4956
NC_012963.1	2798491	644223
NC_012964.1	2394163	644223
NC_012965.1	2245428	644223
NC_012966.1	1778296	644223
NC_006670.1	2300533	214684
NC_006684.1	1632307	214684
NC_006685.1	2105742	214684
NC_006686.1	1783081	214684
NC_006687.1	1507550	214684
NC_006691.1	1438950	214684
NC_006692.1	1347793	214684
NC_006693.1	1194300	214684
NC_006694.1	1178688	214684
NC_006679.1	1085720	214684
NC_006680.1	1019846	214684
NC_006681.1	906719	214684
NC_006682.1	787999	214684
NC_006683.1	762694	214684
NC_003242.2	209982	284813
NC_003229.1	197426	284813
NC_003230.1	194439	284813
NC_003231.1	218329	284813
NC_003232.1	211018	284813
NC_003233.1	220294	284813
NC_003234.1	226576	284813
NC_003235.1	238147	284813
NC_003238.2	251002	284813
NC_003236.1	262797	284813
NC_003237.1	267509	284813
NC_013077.1	687718	559295
NC_013078.1	893706	559295
NC_013079.1	999246	559295
NC_013080.1	1513537	559295
NC_013081.1	1521774	559295
NC_013082.1	1632914	559295
NC_013083.1	1720065	559295
NC_013084.1	1423902	559295
NC_014415.1	160332	876142
NC_014416.1	175776	876142
NC_014417.1	176815	876142
NC_014418.1	193740	876142
NC_014419.1	196642	876142
NC_014420.1	198217	876142
NC_014421.1	205935	876142
NC_014422.1	204910	876142
NC_014423.1	233397	876142
NC_014424.1	234890	876142
NC_014425.1	236244	876142
NC_026745.1	2291499	235443
NC_026746.1	1621675	235443
NC_026747.1	1575141	235443
NC_026748.1	1084805	235443
NC_026749.1	1814975	235443
NC_026750.1	1422463	235443
NC_026751.1	1399503	235443
NC_026752.1	1398693	235443
NC_026753.1	1186808	235443
NC_026754.1	1059964	235443
NC_026755.1	1561994	235443
NC_026756.1	774062	235443
NC_026757.1	756744	235443
NC_026758.1	942867	235443
NC_018792.1	24919	235443
NC_009177.1	2297073	283643
NC_009178.1	2283892	283643
NC_009179.1	2079976	283643
NC_009180.1	1786351	283643
NC_009181.1	1461964	283643
NC_009182.1	1411173	283643
NC_009183.1	1414206	283643
NC_009184.1	1177453	283643
NC_009185.1	1131068	283643
NC_009186.1	1086008	283643
NC_009187.1	1063760	283643
NC_009188.1	932832	283643
NC_009189.1	806693	283643
NC_009190.1	767333	283643
NC_031675.1	6219215	334819
NC_031676.1	4690091	334819
NC_031677.1	4643527	334819
NC_031678.1	4236349	334819
NC_031679.1	4246266	334819
NC_031680.1	3901718	334819
NC_031681.1	3246334	334819
NC_031682.1	2860106	334819
NC_031683.1	2757828	334819
NC_031684.1	2262009	334819
NC_031685.1	2040847	334819
NW_017387864.1	108717	334819
NW_017387865.1	95905	334819
NW_017387866.1	92057	334819
NW_017387867.1	50904	334819
NW_017387868.1	29093	334819
NW_017387869.1	21863	334819
NW_017387870.1	169676	334819
NW_017387871.1	70717	334819
NW_017387872.1	25178	334819
NW_017387873.1	22761	334819
NC_016687.1	53753	334819
na	18211	334819
na	27002	334819
na	48711	334819
NC_030986.1	6854980	426428
NC_030987.1	5577357	426428
NC_030988.1	5634991	426428
NC_030989.1	5212762	426428
NC_030990.1	4914260	426428
NC_030991.1	4589937	426428
NC_030992.1	4347182	426428
NC_030993.1	3984410	426428
NC_030994.1	3304701	426428
NC_030995.1	2896840	426428
NC_030996.1	2337134	426428
NC_030997.1	2233407	426428
NC_030998.1	1751499	426428
NC_030999.1	1838362	426428
NC_031000.1	2434640	426428
NW_017264845.1	648876	426428
NW_017264846.1	500264	426428
NW_017264847.1	266096	426428
NW_017264848.1	186228	426428
NW_017264849.1	197769	426428
NW_017264850.1	162807	426428
NW_017264851.1	154101	426428
NW_017264852.1	130108	426428
NW_017264853.1	106513	426428
NW_017264854.1	130382	426428
NW_017264855.1	70881	426428
NW_017264856.1	68476	426428
NW_017264857.1	50139	426428
NW_017264858.1	48502	426428
NW_017264859.1	41300	426428
NW_017264860.1	37281	426428
NW_017264861.1	38310	426428
NW_017264862.1	88572	426428
NW_017264863.1	35908	426428
NW_017264864.1	27665	426428
NW_017264865.1	24054	426428
NW_017264866.1	23611	426428
NW_017264867.1	19665	426428
NW_017264868.1	18211	426428
NW_017264869.1	15960	426428
NW_017264870.1	15558	426428
NW_017264871.1	17210	426428
NW_017264872.1	14354	426428
NW_017264873.1	13996	426428
NW_017264874.1	13870	426428
NW_017264875.1	12225	426428
NW_017264876.1	12223	426428
NW_017264877.1	12033	426428
NW_017264878.1	11770	426428
NW_017264879.1	11704	426428
NW_017264880.1	10823	426428
NW_017264881.1	10274	426428
NW_017264882.1	9646	426428
NW_017264883.1	9254	426428
NW_017264884.1	8745	426428
NW_017264885.1	10499	426428
NW_017264886.1	8569	426428
NW_017264887.1	8539	426428
NW_017264888.1	8435	426428
NW_017264889.1	8418	426428
NW_017264890.1	8418	426428
NW_017264891.1	8301	426428
NW_017264892.1	8129	426428
NW_017264893.1	8068	426428
NW_017264894.1	7930	426428
NW_017264895.1	7880	426428
NW_017264896.1	7753	426428
NW_017264897.1	7577	426428
NW_017264898.1	6931	426428
NW_017264899.1	6596	426428
NW_017264900.1	6555	426428
NW_017264901.1	7973	426428
NW_017264902.1	7724	426428
NW_017264903.1	5692	426428
NW_017264904.1	5688	426428
NW_017264905.1	5631	426428
NW_017264906.1	5570	426428
NW_017264907.1	5556	426428
NW_017264908.1	5419	426428
NW_017264909.1	5366	426428
NW_017264910.1	5078	426428
NW_017264911.1	4579	426428
NW_017264912.1	4100	426428
NW_017264913.1	1234	426428
NW_017264914.1	900	426428
na	16066	426428
na	24609	426428
na	44088	426428
NC_026501.1	9798893	367110
NC_026502.1	4478683	367110
NC_026503.1	5274802	367110
NC_026504.1	6000761	367110
NC_026505.1	6436246	367110
NC_026506.1	4218384	367110
NC_026507.1	4255303	367110
NW_011929459.1	192308	367110
NW_011929460.1	142473	367110
NW_011929461.1	125404	367110
NW_011929462.1	31696	367110
NW_011929463.1	19714	367110
NW_011929464.1	13515	367110
NW_011929465.1	11565	367110
NW_011929466.1	9397	367110
NW_011929467.1	8983	367110
NW_011929468.1	6701	367110
NW_011929469.1	6309	367110
NW_011929470.1	4755	367110
NW_011929471.1	1646	367110
NC_026614.1	64840	367110
NC_032089.1	3188341	237561
NC_032090.1	2231883	237561
NC_032091.1	1799298	237561
NC_032092.1	1603259	237561
NC_032093.1	1190845	237561
NC_032094.1	1033292	237561
NC_032095.1	949511	237561
NC_032096.1	2286237	237561
NC_014938.1	1984823	367775
NC_014939.1	2187695	367775
NC_014940.1	1961512	367775
NC_014941.1	2233618	367775
NC_014942.1	1333124	367775
NC_014943.1	1325755	367775
NC_014944.1	1324677	367775
NC_014945.1	1265488	367775
NC_014946.1	989306	367775
NC_014947.1	522727	367775
NC_014948.1	1040760	367775
NC_014949.1	820445	367775
NC_014950.1	705823	367775
NC_014951.1	679007	367775
NC_027866.1	955766	871575
NC_027865.1	990963	871575
NC_027864.1	1273462	871575
NC_027863.1	1293628	871575
NC_027862.1	1330267	871575
NC_027861.1	1514933	871575
NC_027860.1	1515570	871575
NC_009068.1	3510247	322104
NC_009042.1	2740984	322104
NC_009043.1	1841851	322104
NC_009044.1	1803401	322104
NC_009045.1	1725948	322104
NC_009046.1	1724953	322104
NC_009047.1	1114415	322104
NC_009048.1	979380	322104
NC_018218.1	6088797	336722
NC_018217.1	3860111	336722
NC_018216.1	3505381	336722
NC_018215.1	2880011	336722
NC_018214.1	2861803	336722
NC_018213.1	2674951	336722
NC_018212.1	2665280	336722
NC_018211.1	2443572	336722
NC_018210.1	2142475	336722
NC_018209.1	1682575	336722
NC_018208.1	1624292	336722
NC_018207.1	1462624	336722
NC_018206.1	1185774	336722
NC_018205.1	773098	336722
NC_018204.1	639501	336722
NC_018203.1	607044	336722
NC_018202.1	584099	336722
NC_018201.1	573698	336722
NC_018200.1	549847	336722
NC_018199.1	472105	336722
NC_018198.1	409213	336722
NC_016479.1	2054635	1071378
NC_016480.1	1549475	1071378
NC_016481.1	1536206	1071378
NC_016482.1	1230053	1071378
NC_016483.1	1184459	1071378
NC_016484.1	1138463	1071378
NC_016485.2	1565278	1071378
NC_016486.1	1004037	1071378
NC_016487.1	786484	1071378
NC_016488.1	782356	1071378
NC_016489.1	696134	1071378
NC_016449.1	1110245	931890
NC_016450.1	1601921	931890
NC_016451.1	1193613	931890
NC_016452.1	1540972	931890
NC_016453.1	1385851	931890
NC_016454.1	959278	931890
NC_016455.1	980088	931890
NC_016456.1	897456	931890
NC_016520.1	1377933	1071381
NC_016521.1	1164785	1071381
NC_016522.1	1096211	1071381
NC_016523.1	1042069	1071381
NC_016524.1	854350	1071381
NC_016525.1	815984	1071381
NC_016526.1	808783	1071381
NC_016527.1	752451	1071381
NC_016528.1	740259	1071381
NC_016529.1	713392	1071381
NC_016530.1	536385	1071381
NC_016531.1	504740	1071381
NC_016532.1	452480	1071381
NC_016533.1	432466	1071381
NC_016534.1	413379	1071381
NC_016535.1	394523	1071381
NW_003780271.1	14880	1071381
NC_016491.1	3019861	1064592
NC_016492.1	1756361	1064592
NC_016493.1	1245273	1064592
NC_016494.1	958728	1064592
NC_016495.1	835708	1064592
NC_016496.1	828437	1064592
NC_016497.1	804126	1064592
NC_016498.1	699326	1064592
NC_016499.1	603245	1064592
NC_016500.1	468474	1064592
NC_026474.1	11697295	229533
NC_026475.1	8914601	229533
NC_026476.1	7713129	229533
NC_026477.1	8033942	229533
NW_001837916.1	15604	229533
NW_001837915.1	12585	229533
NW_001837913.1	10471	229533
NW_001837910.1	8774	229533
NW_001837908.1	7037	229533
NW_001837907.1	7489	229533
NW_001837906.1	6062	229533
NW_001837905.1	6331	229533
NW_001837904.1	6000	229533
NW_001837903.1	6524	229533
NW_001837902.1	2996	229533
NW_001837900.1	2628	229533
NW_001837899.1	2326	229533
NW_001837898.1	2172	229533
NW_001837897.1	2080	229533
na	50295	229533
na	57430	229533
NC_016501.1	1418021	4950
NC_016502.1	1354397	4950
NC_016503.1	1292049	4950
NC_016504.1	1218070	4950
NC_016505.1	1086982	4950
NC_016506.1	1070623	4950
NC_016507.1	946563	4950
NC_016508.1	833973	4950
NC_018468.1	161584	907965
NC_018469.1	179949	907965
NC_018470.1	182562	907965
NC_018471.1	196397	907965
NC_018472.1	201478	907965
NC_018473.1	200132	907965
NC_018474.1	213233	907965
NC_018475.1	203699	907965
NC_018479.1	240865	907965
NC_018480.1	237616	907965
NW_004057897.1	167643	907965
NW_004057898.1	66626	907965
NC_024896.1	146158	1178016
NC_024897.1	173763	1178016
NC_024898.1	179400	1178016
NC_024899.1	197308	1178016
NC_024900.1	191809	1178016
NC_024901.1	194799	1178016
NC_024902.1	204533	1178016
NC_024903.1	207682	1178016
NC_024904.1	230122	1178016
NC_024905.1	231554	1178016
NW_008806271.1	65433	1178016
NW_008806272.1	96871	1178016
NW_008806273.1	68163	1178016
NC_031951.1	11688822	1028729
NC_031952.1	8840934	1028729
NC_031953.1	7724594	1028729
NC_031954.1	8075896	1028729
NW_017607575.1	2403	1028729
NW_017607576.1	3125	1028729
NW_017607577.1	11758	1028729
NW_017607578.1	2642	1028729
NW_017607579.1	5884	1028729
NW_017607580.1	8379	1028729
NW_017607581.1	1085	1028729
NW_017607582.1	1677	1028729
NW_017607583.1	2454	1028729
NW_017607584.1	520	1028729
NW_017607585.1	5564	1028729
NW_017607586.1	22855	1028729
NW_017607587.1	4052	1028729
NW_017607588.1	539	1028729
NW_017607589.1	933	1028729
NW_017607590.1	14699	1028729
NW_017607591.1	4488	1028729
NW_017607592.1	2757	1028729
NW_017607593.1	1121	1028729
NW_017607594.1	3028	1028729
NW_017607595.1	4920	1028729
NW_017607596.1	2033	1028729
NW_017607597.1	3935	1028729
NW_017607598.1	2054	1028729
NW_017607599.1	2908	1028729
NW_017607600.1	2239	1028729
NW_017607601.1	1963	1028729
NW_017607602.1	5062	1028729
NW_017607603.1	4833	1028729
NW_017607604.1	1392	1028729
NW_017607605.1	1814	1028729
NW_017607606.1	2864	1028729
NW_017607607.1	7664	1028729
NW_017607608.1	1702	1028729
NW_017607609.1	3097	1028729
NW_017607610.1	4558	1028729
NW_017607611.1	5638	1028729
NW_017607612.1	4483	1028729
NW_017607613.1	1939	1028729
NW_017607614.1	2879	1028729
NW_017607615.1	4507	1028729
NW_017607616.1	3334	1028729
NW_017607617.1	1046	1028729
NW_017607618.1	8645	1028729
NW_017607619.1	2120	1028729
NW_017607620.1	2294	1028729
NW_017607621.1	3460	1028729
NW_017607622.1	2142	1028729
NW_017607623.1	2521	1028729
NW_017607624.1	3410	1028729
NW_017607625.1	3776	1028729
NW_017607626.1	6994	1028729
NW_017607627.1	3292	1028729
NW_017607628.1	2449	1028729
NW_017607629.1	689	1028729
NW_017607630.1	2105	1028729
NW_017607631.1	3544	1028729
NW_017607632.1	1545	1028729
NW_017607633.1	959	1028729
NW_017607634.1	2477	1028729
NW_017607635.1	2256	1028729
NW_017607636.1	2337	1028729
NW_017607637.1	2277	1028729
NW_017607638.1	1094	1028729
NW_017607639.1	2072	1028729
NW_017607640.1	2584	1028729
NW_017607641.1	973	1028729
NW_017607642.1	1303	1028729
NW_017607643.1	1312	1028729
NW_017607644.1	1085	1028729
NW_017607645.1	1026	1028729
NW_017607646.1	1452	1028729
NW_017607647.1	2877	1028729
NW_017607648.1	607	1028729
NW_017607649.1	2251	1028729
NW_017607650.1	1987	1028729
NW_017607651.1	1695	1028729
NW_017607652.1	1111	1028729
NW_017607653.1	2244	1028729
NW_017607654.1	1207	1028729
NW_017607655.1	1153	1028729
NW_017607656.1	1323	1028729
NW_017607657.1	1589	1028729
NW_017607658.1	896	1028729
NW_017607659.1	1089	1028729
NW_017607660.1	960	1028729
NW_017607661.1	507	1028729
NW_017607662.1	586	1028729
NW_017607663.1	945	1028729
NW_017607664.1	542	1028729
NW_017607665.1	559	1028729
NW_017607666.1	3016	1028729
NW_017607667.1	520	1028729
NW_017607668.1	733	1028729
NW_017607669.1	2034	1028729
NW_017607670.1	1417	1028729
NW_017607671.1	1800	1028729
NW_017607672.1	620	1028729
NW_017607673.1	818	1028729
NW_017607674.1	5514	1028729
NW_017607675.1	4062	1028729
NW_017607676.1	2588	1028729
NW_017607677.1	1290	1028729
NW_017607678.1	1518	1028729
NW_017607679.1	1465	1028729
NW_017607680.1	2215	1028729
NW_017607681.1	1617	1028729
NW_017607682.1	3814	1028729
NW_017607683.1	1733	1028729
NW_017607684.1	2609	1028729
NW_017607685.1	3955	1028729
NW_017607686.1	3809	1028729
NW_017607687.1	1408	1028729
NW_017607688.1	1033	1028729
NW_017607689.1	849	1028729
NW_017607690.1	3182	1028729
NW_017607691.1	2059	1028729
NW_017607692.1	1748	1028729
NW_017607693.1	2430	1028729
NW_017607694.1	1233	1028729
NW_017607695.1	1808	1028729
NW_017607696.1	1764	1028729
NW_017607697.1	3680	1028729
NW_017607698.1	1189	1028729
NW_017607699.1	3193	1028729
NW_017607700.1	4015	1028729
NW_017607701.1	645	1028729
NW_017607702.1	1614	1028729
NW_017607703.1	1133	1028729
NW_017607704.1	4356	1028729
NW_017607705.1	973	1028729
NW_017607706.1	1226	1028729
NW_017607707.1	2124	1028729
NW_017607708.1	2349	1028729
NW_017607709.1	2533	1028729
NW_017607710.1	1318	1028729
NW_017607711.1	831	1028729
NW_017607712.1	2582	1028729
NW_017607713.1	1268	1028729
NW_017607714.1	1493	1028729
NW_017607715.1	1486	1028729
NW_017607716.1	1533	1028729
NW_017607717.1	1449	1028729
NW_017607718.1	660	1028729
NW_017607719.1	1562	1028729
NW_017607720.1	2494	1028729
NW_017607721.1	810	1028729
NW_017607722.1	1113	1028729
NW_017607723.1	1147	1028729
NW_017607724.1	1752	1028729
NW_017607725.1	535	1028729
NW_017607726.1	1025	1028729
NW_017607727.1	646	1028729
NW_017607728.1	3005	1028729
NW_017607729.1	1005	1028729
NW_017607730.1	990	1028729
NW_017607731.1	5586	1028729
NW_017607732.1	1120	1028729
NW_017607733.1	2638	1028729
NW_017607734.1	1658	1028729
NW_017607735.1	1232	1028729
NW_017607736.1	3299	1028729
NW_017607737.1	637	1028729
NW_017607738.1	1712	1028729
NW_017607739.1	2000	1028729
NW_017607740.1	629	1028729
NW_017607741.1	2019	1028729
NW_017607742.1	2454	1028729
NW_017607743.1	531	1028729
NW_017607744.1	1429	1028729
NW_017607745.1	1141	1028729
NW_017607746.1	2383	1028729
NW_017607747.1	2985	1028729
NW_017607748.1	597	1028729
NW_017607749.1	976	1028729
NW_017607750.1	634	1028729
NW_017607751.1	1148	1028729
NW_017607752.1	635	1028729
NW_017607753.1	607	1028729
NW_017607754.1	645	1028729
NW_017607755.1	674	1028729
NW_017607756.1	1631	1028729
NW_017607757.1	1022	1028729
NW_017607758.1	953	1028729
NW_017607759.1	1375	1028729
NW_017607760.1	531	1028729
NW_017607761.1	1755	1028729
NW_017607762.1	1141	1028729
NW_017607763.1	1272	1028729
NW_017607764.1	1757	1028729
NW_017607765.1	1731	1028729
NW_017607766.1	1026	1028729
NW_017607767.1	1560	1028729
NW_017607768.1	638	1028729
NW_017607769.1	1278	1028729
NW_017607770.1	1257	1028729
NW_017607771.1	579	1028729
NW_017607772.1	1758	1028729
NW_017607773.1	523	1028729
NW_017607774.1	1836	1028729
NW_017607775.1	1131	1028729
NW_017607776.1	565	1028729
NW_017607777.1	1252	1028729
NW_017607778.1	647	1028729
NW_017607779.1	786	1028729
NW_017607780.1	975	1028729
NW_017607781.1	502	1028729
NW_017607782.1	695	1028729
NW_017607783.1	711	1028729
NW_017607784.1	796	1028729
NW_017607785.1	709	1028729
NW_017607786.1	2009	1028729
NW_017607787.1	579	1028729
NW_017607788.1	1731	1028729
NW_017607789.1	580	1028729
NW_017607790.1	758	1028729
NW_017607791.1	565	1028729
NW_017607792.1	1017	1028729
NW_017607793.1	1779	1028729
NW_017607794.1	1291	1028729
NW_017607795.1	1313	1028729
NW_017607796.1	1032	1028729
NW_017607797.1	710	1028729
NW_017607798.1	678	1028729
NW_017607799.1	1033	1028729
NW_017607800.1	948	1028729
NW_017607801.1	725	1028729
NW_017607802.1	1065	1028729
NW_017607803.1	1124	1028729
NW_017607804.1	670	1028729
NW_017607805.1	1027	1028729
NW_017607806.1	725	1028729
NW_017607807.1	782	1028729
NW_017607808.1	1625	1028729
NW_017607809.1	581	1028729
NW_017607810.1	617	1028729
NW_017607811.1	616	1028729
NW_017607812.1	598	1028729
NW_017607813.1	505	1028729
NW_017607814.1	619	1028729
NW_017607815.1	1383	1028729
NW_017607816.1	827	1028729
NW_017607817.1	651	1028729
NW_017607818.1	646	1028729
NW_017607819.1	739	1028729
NW_017607820.1	703	1028729
NW_017607821.1	763	1028729
NW_017607822.1	616	1028729
NW_017607823.1	879	1028729
NW_017607824.1	537	1028729
NW_017607825.1	923	1028729
NW_017607826.1	743	1028729
NW_017607827.1	532	1028729
NW_017607828.1	553	1028729
NW_017607829.1	639	1028729
NW_017607830.1	535	1028729
NW_017607831.1	819	1028729
NW_017607832.1	658	1028729
NW_017607833.1	658	1028729
NW_017607834.1	508	1028729
NW_017607835.1	529	1028729
NW_017607836.1	521	1028729
NW_017607837.1	517	1028729
NW_017607838.1	511	1028729
NW_017607839.1	535	1028729
NW_017607840.1	888	1028729
NW_017607841.1	673	1028729
NW_017607842.1	1764	1028729
NW_017607843.1	5038	1028729
NW_017607844.1	2322	1028729
NW_017607845.1	3954	1028729
NW_017607846.1	3185	1028729
NW_017607847.1	2057	1028729
NW_017607848.1	835	1028729
NW_017607849.1	852	1028729
NW_017607573.1	50404	1028729
NW_017607574.1	59510	1028729
NC_018940.1	1757399	1071382
NC_018941.1	1485491	1071382
NC_018942.1	1340033	1071382
NC_018943.1	1026673	1071382
NC_018944.1	925516	1071382
NC_018945.1	888590	1071382
NC_018946.1	812636	1071382
NC_018947.1	738805	1071382
NC_018948.1	607727	1071382
NC_018949.1	578118	1071382
NC_018950.1	547686	1071382
NC_018951.1	421466	1071382
NC_018292.1	2936865	1136231
NC_018295.1	2433673	1136231
NC_018296.1	1644167	1136231
NC_018297.1	1591921	1136231
NC_018298.1	1474802	1136231
NC_018300.1	1027593	1136231
NC_018301.1	937312	1136231
NC_018302.1	613068	1136231
